<?xml version="1.0" encoding="utf-8"?>
<!-- Generator: Adobe Illustrator 16.0.0, SVG Export Plug-In . SVG Version: 6.00 Build 0)  -->
<!DOCTYPE svg PUBLIC "-//W3C//DTD SVG 1.1//EN" "http://www.w3.org/Graphics/SVG/1.1/DTD/svg11.dtd">
<svg version="1.1" id="Layer_1" xmlns="http://www.w3.org/2000/svg" xmlns:xlink="http://www.w3.org/1999/xlink" x="0px" y="0px"
	 width="500px" height="500px" viewBox="0 0 500 500" enable-background="new 0 0 500 500" xml:space="preserve">
<polyline fill="#2CAEE4" points="250,250 500,500 430,500 220,290 "/>
<polygon fill="#EC3634" points="500,0 500,500 0,0 70,0 440,370 440,130 70,500 0,500 "/>
<polyline fill="#2CAEE4" points="210,280 60,130 60,370 430,0 500,0 0,500 0,0 250,250 "/>
</svg>
